ZS_2025_vyuka/fen/plazmaticky_fokus/data/osciloskop/01.csv

Model,MDO3014
Firmware Version,1.30

Waveform Type,ANALOG,,,,,Waveform Type,DIGITAL
Point Format,Y,,,,,Point Format,Y
Horizontal Units,s,,,,,Horizontal Units,s
Horizontal Scale,4e-07,,,,,Horizontal Scale,4e-07
Horizontal Delay,4.28e-07,,,,,,
Sample Interval,4e-10,,,,,Sample Interval,2e-09
Record Length,10000,,,,,Record Length,2000
Gating,0.0% to 100.0%,,,,,Gating,0.1% to 100.0%
Probe Attenuation,10,10,1000,1,,,
Vertical Units,V,V,V,V,,Vertical Units,V
Vertical Offset,0,0,0,0,,Threshold Used,3.04
Vertical Scale,100,2,2000,1,,,
Vertical Position,-0.06,-3.32,-2.38,-4.08,,,
,,,,,,,
,,,,,,,
,,,,,,,
Label,di/dt,Current,MCP,Trigger,,Label,
TIME,CH1,CH2,CH3,CH4,,TIME,D0
-1.5720e-06,-6,8.88178e-16,-40,-0.04,,-1.572e-06,0
-1.5716e-06,-2,8.88178e-16,40,-0.04,,-1.570e-06,0
-1.5712e-06,2,-0.08,40,-0.04,,-1.568e-06,0
-1.5708e-06,2,-0.08,40,-0.04,,-1.566e-06,0
-1.5704e-06,2,8.88178e-16,120,-0.04,,-1.564e-06,0
-1.5700e-06,2,8.88178e-16,-40,-0.08,,-1.562e-06,0
-1.5696e-06,2,8.88178e-16,40,-0.04,,-1.560e-06,0
-1.5692e-06,-2,0.08,40,0,,-1.558e-06,0
-1.5688e-06,-2,8.88178e-16,40,-0.04,,-1.556e-06,0
-1.5684e-06,2,-0.08,-40,-0.08,,-1.554e-06,0
-1.5680e-06,-6,0.08,40,-0.08,,-1.552e-06,0
-1.5676e-06,2,8.88178e-16,40,-0.08,,-1.550e-06,0
-1.5672e-06,-2,-0.08,40,-0.04,,-1.548e-06,0
-1.5668e-06,2,8.88178e-16,-120,0,,-1.546e-06,0
-1.5664e-06,-2,8.88178e-16,-40,-0.04,,-1.544e-06,0
-1.5660e-06,-2,8.88178e-16,-40,-0.04,,-1.542e-06,0
-1.5656e-06,-2,0.08,-40,-0.04,,-1.540e-06,0
-1.5652e-06,2,8.88178e-16,40,-0.04,,-1.538e-06,0
-1.5648e-06,2,8.88178e-16,40,-0.08,,-1.536e-06,0
-1.5644e-06,-2,-0.08,40,-0.08,,-1.534e-06,0
-1.5640e-06,2,8.88178e-16,40,-0.04,,-1.532e-06,0
-1.5636e-06,2,8.88178e-16,-40,-0.04,,-1.530e-06,0
-1.5632e-06,2,-0.08,40,-0.04,,-1.528e-06,0
-1.5628e-06,2,-0.08,-120,-0.04,,-1.526e-06,0
-1.5624e-06,-2,-0.08,-40,-0.04,,-1.524e-06,0
-1.5620e-06,2,-0.16,-40,-0.04,,-1.522e-06,0
-1.5616e-06,2,8.88178e-16,-40,-0.04,,-1.520e-06,0
-1.5612e-06,2,-0.08,40,0,,-1.518e-06,0
-1.5608e-06,-2,-0.08,-40,-0.04,,-1.516e-06,0
-1.5604e-06,-2,8.88178e-16,-40,-0.04,,-1.514e-06,0
-1.5600e-06,-6,-0.08,40,-0.04,,-1.512e-06,0
-1.5596e-06,-2,-0.08,40,0,,-1.510e-06,0
-1.5592e-06,-2,-0.08,40,-0.08,,-1.508e-06,0
-1.5588e-06,2,8.88178e-16,-40,-0.04,,-1.506e-06,0
-1.5584e-06,2,8.88178e-16,-120,0,,-1.504e-06,0
-1.5580e-06,2,8.88178e-16,40,-0.04,,-1.502e-06,0
-1.5576e-06,2,-0.08,40,-0.08,,-1.500e-06,0
-1.5572e-06,2,-0.08,-120,-0.04,,-1.498e-06,0
-1.5568e-06,2,-0.08,40,-0.04,,-1.496e-06,0
-1.5564e-06,-2,-0.08,-40,-0.08,,-1.494e-06,0
-1.5560e-06,2,-0.08,40,0,,-1.492e-06,0
-1.5556e-06,-6,-0.08,40,0,,-1.490e-06,0
-1.5552e-06,-2,8.88178e-16,-40,0,,-1.488e-06,0
-1.5548e-06,2,8.88178e-16,40,-0.04,,-1.486e-06,0
-1.5544e-06,2,8.88178e-16,40,-0.04,,-1.484e-06,0
-1.5540e-06,2,-0.16,-120,-0.04,,-1.482e-06,0
-1.5536e-06,2,-0.08,-40,-0.04,,-1.480e-06,0
-1.5532e-06,2,8.88178e-16,-40,-0.08,,-1.478e-06,0
-1.5528e-06,-2,0.08,40,-0.04,,-1.476e-06,0
-1.5524e-06,-2,8.88178e-16,40,-0.04,,-1.474e-06,0
-1.5520e-06,2,-0.08,-40,-0.08,,-1.472e-06,0
-1.5516e-06,2,8.88178e-16,40,-0.08,,-1.470e-06,0
-1.5512e-06,2,-0.08,40,-0.08,,-1.468e-06,0
-1.5508e-06,2,-0.08,-40,-0.04,,-1.466e-06,0
-1.5504e-06,2,8.88178e-16,-40,-0.04,,-1.464e-06,0
-1.5500e-06,2,8.88178e-16,40,0,,-1.462e-06,0
-1.5496e-06,2,8.88178e-16,-40,0,,-1.460e-06,0
-1.5492e-06,2,8.88178e-16,40,-0.04,,-1.458e-06,0
-1.5488e-06,2,-0.08,120,-0.04,,-1.456e-06,0
-1.5484e-06,2,8.88178e-16,-40,0,,-1.454e-06,0
-1.5480e-06,2,8.88178e-16,-40,0,,-1.452e-06,0
-1.5476e-06,2,8.88178e-16,40,-0.04,,-1.450e-06,0
-1.5472e-06,-2,8.88178e-16,120,-0.08,,-1.448e-06,0
-1.5468e-06,-2,8.88178e-16,40,-0.08,,-1.446e-06,0
-1.5464e-06,-2,-0.08,40,-0.04,,-1.444e-06,0
-1.5460e-06,-6,8.88178e-16,120,-0.04,,-1.442e-06,0
-1.5456e-06,2,8.88178e-16,40,-0.04,,-1.440e-06,0
-1.5452e-06,2,-0.08,40,-0.08,,-1.438e-06,0
-1.5448e-06,-2,-0.16,40,-0.08,,-1.436e-06,0
-1.5444e-06,-6,8.88178e-16,40,-0.04,,-1.434e-06,0
-1.5440e-06,-2,8.88178e-16,40,0,,-1.432e-06,0
-1.5436e-06,2,8.88178e-16,40,-0.04,,-1.430e-06,0
-1.5432e-06,-6,8.88178e-16,40,-0.08,,-1.428e-06,0
-1.5428e-06,-2,8.88178e-16,-40,-0.08,,-1.426e-06,0
-1.5424e-06,-6,-0.08,-40,-0.12,,-1.424e-06,0
-1.5420e-06,-2,-0.08,-40,-0.04,,-1.422e-06,0
-1.5416e-06,2,8.88178e-16,-40,-0.08,,-1.420e-06,0
-1.5412e-06,-2,8.88178e-16,40,-0.04,,-1.418e-06,0
-1.5408e-06,2,0.08,40,-0.04,,-1.416e-06,0
-1.5404e-06,2,8.88178e-16,-40,-0.08,,-1.414e-06,0
-1.5400e-06,2,8.88178e-16,40,0,,-1.412e-06,0
-1.5396e-06,2,0.08,-40,-0.08,,-1.410e-06,0
-1.5392e-06,2,8.88178e-16,-40,-0.04,,-1.408e-06,0
-1.5388e-06,2,-0.08,-40,-0.04,,-1.406e-06,0
-1.5384e-06,2,-0.08,-40,-0.04,,-1.404e-06,0
-1.5380e-06,2,0.08,40,-0.08,,-1.402e-06,0
-1.5376e-06,2,8.88178e-16,40,-0.12,,-1.400e-06,0
-1.5372e-06,2,8.88178e-16,-120,-0.04,,-1.398e-06,0
-1.5368e-06,2,8.88178e-16,40,-0.04,,-1.396e-06,0
-1.5364e-06,2,8.88178e-16,-40,-0.08,,-1.394e-06,0
-1.5360e-06,-6,8.88178e-16,40,-0.04,,-1.392e-06,0
-1.5356e-06,-2,8.88178e-16,-40,-0.04,,-1.390e-06,0
-1.5352e-06,-6,-0.08,40,-0.04,,-1.388e-06,0
-1.5348e-06,-2,8.88178e-16,40,0,,-1.386e-06,0
-1.5344e-06,-6,8.88178e-16,40,0,,-1.384e-06,0
-1.5340e-06,-6,-0.08,40,0,,-1.382e-06,0
-1.5336e-06,-2,0.16,-40,0,,-1.380e-06,0
-1.5332e-06,-6,-0.08,-120,0,,-1.378e-06,0
-1.5328e-06,-6,8.88178e-16,-40,-0.04,,-1.376e-06,0
-1.5324e-06,-2,8.88178e-16,-40,-0.04,,-1.374e-06,0
-1.5320e-06,2,8.88178e-16,-40,-0.04,,-1.372e-06,0
-1.5316e-06,-6,-0.08,-40,-0.08,,-1.370e-06,0
-1.5312e-06,2,-0.08,-40,-0.04,,-1.368e-06,0
-1.5308e-06,2,-0.16,40,-0.08,,-1.366e-06,0
-1.5304e-06,-2,8.88178e-16,-40,-0.08,,-1.364e-06,0
-1.5300e-06,-2,8.88178e-16,-40,-0.04,,-1.362e-06,0
-1.5296e-06,2,8.88178e-16,-40,-0.04,,-1.360e-06,0
-1.5292e-06,2,8.88178e-16,-40,-0.04,,-1.358e-06,0
-1.5288e-06,-2,8.88178e-16,-40,-0.08,,-1.356e-06,0
-1.5284e-06,2,-0.08,-40,0,,-1.354e-06,0
-1.5280e-06,2,8.88178e-16,-120,-0.04,,-1.352e-06,0
-1.5276e-06,2,8.88178e-16,-40,0,,-1.350e-06,0
-1.5272e-06,-2,8.88178e-16,-40,-0.04,,-1.348e-06,0
-1.5268e-06,-2,-0.08,-40,0,,-1.346e-06,0
-1.5264e-06,-2,8.88178e-16,40,0,,-1.344e-06,0
-1.5260e-06,-2,8.88178e-16,-40,0,,-1.342e-06,0
-1.5256e-06,2,8.88178e-16,120,-0.04,,-1.340e-06,0
-1.5252e-06,2,8.88178e-16,40,-0.04,,-1.338e-06,0
-1.5248e-06,-2,8.88178e-16,40,-0.04,,-1.336e-06,0
-1.5244e-06,2,8.88178e-16,40,-0.08,,-1.334e-06,0
-1.5240e-06,-2,8.88178e-16,40,-0.04,,-1.332e-06,0
-1.5236e-06,2,0.08,-40,-0.08,,-1.330e-06,0
-1.5232e-06,2,8.88178e-16,-40,0,,-1.328e-06,0
-1.5228e-06,2,-0.08,-40,0,,-1.326e-06,0
-1.5224e-06,-2,-0.08,-40,-0.04,,-1.324e-06,0
-1.5220e-06,-2,8.88178e-16,-40,-0.04,,-1.322e-06,0
-1.5216e-06,-2,8.88178e-16,40,-0.04,,-1.320e-06,0
-1.5212e-06,-2,8.88178e-16,-40,0,,-1.318e-06,0
-1.5208e-06,-2,8.88178e-16,40,-0.04,,-1.316e-06,0
-1.5204e-06,2,8.88178e-16,-40,-0.04,,-1.314e-06,0
-1.5200e-06,-2,-0.08,-40,0,,-1.312e-06,0
-1.5196e-06,2,-0.08,-120,-0.08,,-1.310e-06,0
-1.5192e-06,-2,8.88178e-16,-40,-0.04,,-1.308e-06,0
-1.5188e-06,-2,8.88178e-16,40,0,,-1.306e-06,0
-1.5184e-06,2,8.88178e-16,40,-0.04,,-1.304e-06,0
-1.5180e-06,2,8.88178e-16,-40,-0.04,,-1.302e-06,0
-1.5176e-06,2,-0.08,40,0,,-1.300e-06,0
-1.5172e-06,2,8.88178e-16,-40,-0.04,,-1.298e-06,0
-1.5168e-06,2,8.88178e-16,120,0,,-1.296e-06,0
-1.5164e-06,2,8.88178e-16,120,-0.08,,-1.294e-06,0
-1.5160e-06,2,8.88178e-16,-40,-0.04,,-1.292e-06,0
-1.5156e-06,2,8.88178e-16,-40,-0.04,,-1.290e-06,0
-1.5152e-06,-2,8.88178e-16,120,-0.04,,-1.288e-06,0
-1.5148e-06,-2,-0.08,-40,0,,-1.286e-06,0
-1.5144e-06,-2,8.88178e-16,40,0,,-1.284e-06,0
-1.5140e-06,2,8.88178e-16,40,-0.04,,-1.282e-06,0
-1.5136e-06,2,8.88178e-16,-120,-0.04,,-1.280e-06,0
-1.5132e-06,-2,8.88178e-16,-120,-0.04,,-1.278e-06,0
-1.5128e-06,-2,8.88178e-16,-40,-0.04,,-1.276e-06,0
-1.5124e-06,2,-0.08,-40,-0.04,,-1.274e-06,0
-1.5120e-06,-2,8.88178e-16,40,-0.04,,-1.272e-06,0
-1.5116e-06,2,-0.08,40,-0.04,,-1.270e-06,0
-1.5112e-06,2,-0.08,40,0,,-1.268e-06,0
-1.5108e-06,-2,-0.08,-40,-0.04,,-1.266e-06,0
-1.5104e-06,2,-0.08,40,-0.04,,-1.264e-06,0
-1.5100e-06,2,8.88178e-16,40,-0.04,,-1.262e-06,0
-1.5096e-06,2,-0.08,-40,-0.04,,-1.260e-06,0
-1.5092e-06,2,8.88178e-16,40,-0.04,,-1.258e-06,0
-1.5088e-06,2,8.88178e-16,40,-0.08,,-1.256e-06,0
-1.5084e-06,2,-0.08,-40,-0.08,,-1.254e-06,0
-1.5080e-06,2,8.88178e-16,40,-0.04,,-1.252e-06,0
-1.5076e-06,2,8.88178e-16,40,0,,-1.250e-06,0
-1.5072e-06,2,8.88178e-16,-40,-0.04,,-1.248e-06,0
-1.5068e-06,2,-0.08,-40,-0.04,,-1.246e-06,0
-1.5064e-06,2,-0.08,40,0,,-1.244e-06,0
-1.5060e-06,-2,8.88178e-16,-40,-0.08,,-1.242e-06,0
-1.5056e-06,-2,-0.08,40,-0.08,,-1.240e-06,0
-1.5052e-06,2,-0.08,120,-0.04,,-1.238e-06,0
-1.5048e-06,2,-0.08,40,0,,-1.236e-06,0
-1.5044e-06,2,8.88178e-16,-40,-0.04,,-1.234e-06,0
-1.5040e-06,2,-0.16,40,-0.04,,-1.232e-06,0
-1.5036e-06,-2,-0.08,-40,-0.08,,-1.230e-06,0
-1.5032e-06,-2,8.88178e-16,40,-0.08,,-1.228e-06,0
-1.5028e-06,-6,8.88178e-16,-40,-0.04,,-1.226e-06,0
-1.5024e-06,-2,8.88178e-16,-40,0,,-1.224e-06,0
-1.5020e-06,-2,8.88178e-16,-40,0,,-1.222e-06,0
-1.5016e-06,-6,-0.08,-40,-0.04,,-1.220e-06,0
-1.5012e-06,-6,8.88178e-16,-40,-0.08,,-1.218e-06,0
-1.5008e-06,-6,8.88178e-16,40,-0.04,,-1.216e-06,0
-1.5004e-06,-2,8.88178e-16,-40,-0.04,,-1.214e-06,0
-1.5000e-06,-6,-0.08,40,-0.04,,-1.212e-06,0
-1.4996e-06,-2,-0.08,40,-0.04,,-1.210e-06,0
-1.4992e-06,-2,-0.08,-40,-0.08,,-1.208e-06,0
-1.4988e-06,2,-0.08,-40,-0.04,,-1.206e-06,0
-1.4984e-06,-2,8.88178e-16,-40,0,,-1.204e-06,0
-1.4980e-06,-6,-0.08,-40,0,,-1.202e-06,0
-1.4976e-06,2,8.88178e-16,-40,-0.04,,-1.200e-06,0
-1.4972e-06,2,-0.08,40,-0.04,,-1.198e-06,0
-1.4968e-06,2,-0.08,-40,-0.04,,-1.196e-06,0
-1.4964e-06,-2,-0.08,40,-0.04,,-1.194e-06,0
-1.4960e-06,2,8.88178e-16,-120,-0.04,,-1.192e-06,0
-1.4956e-06,2,8.88178e-16,-40,-0.08,,-1.190e-06,0
-1.4952e-06,2,8.88178e-16,-40,-0.04,,-1.188e-06,0
-1.4948e-06,2,8.88178e-16,40,-0.04,,-1.186e-06,0
-1.4944e-06,2,0.08,40,-0.04,,-1.184e-06,0
-1.4940e-06,2,0.08,40,-0.04,,-1.182e-06,0
-1.4936e-06,-2,8.88178e-16,-40,0,,-1.180e-06,0
-1.4932e-06,2,-0.08,120,0,,-1.178e-06,0
-1.4928e-06,2,-0.08,40,-0.08,,-1.176e-06,0
-1.4924e-06,2,-0.08,40,-0.08,,-1.174e-06,0
-1.4920e-06,-2,-0.08,40,-0.08,,-1.172e-06,0
-1.4916e-06,2,-0.08,40,-0.04,,-1.170e-06,0
-1.4912e-06,-2,8.88178e-16,40,0,,-1.168e-06,0
-1.4908e-06,2,8.88178e-16,40,-0.04,,-1.166e-06,0
-1.4904e-06,-2,8.88178e-16,-40,-0.04,,-1.164e-06,0
-1.4900e-06,-2,-0.08,-120,0,,-1.162e-06,0
-1.4896e-06,2,8.88178e-16,-40,0,,-1.160e-06,0
-1.4892e-06,-2,-0.08,-40,-0.04,,-1.158e-06,0
-1.4888e-06,-2,8.88178e-16,40,-0.08,,-1.156e-06,0
-1.4884e-06,2,8.88178e-16,-40,-0.08,,-1.154e-06,0
-1.4880e-06,2,8.88178e-16,-40,-0.04,,-1.152e-06,0
-1.4876e-06,2,-0.08,-40,-0.04,,-1.150e-06,0
-1.4872e-06,2,-0.08,40,0.04,,-1.148e-06,0
-1.4868e-06,2,8.88178e-16,40,-0.12,,-1.146e-06,0
-1.4864e-06,2,0.08,-40,-0.08,,-1.144e-06,0
-1.4860e-06,2,-0.08,-40,-0.04,,-1.142e-06,0
-1.4856e-06,2,-0.08,40,-0.04,,-1.140e-06,0
-1.4852e-06,2,8.88178e-16,40,0,,-1.138e-06,0
-1.4848e-06,2,8.88178e-16,-40,-0.04,,-1.136e-06,0
-1.4844e-06,2,8.88178e-16,-40,-0.08,,-1.134e-06,0
-1.4840e-06,2,-0.08,40,-0.04,,-1.132e-06,0
-1.4836e-06,2,-0.08,-40,-0.04,,-1.130e-06,0
-1.4832e-06,2,8.88178e-16,-40,-0.08,,-1.128e-06,0
-1.4828e-06,2,-0.16,40,-0.04,,-1.126e-06,0
-1.4824e-06,2,8.88178e-16,40,-0.04,,-1.124e-06,0
-1.4820e-06,-2,-0.08,40,-0.04,,-1.122e-06,0
-1.4816e-06,-2,8.88178e-16,120,-0.04,,-1.120e-06,0
-1.4812e-06,2,8.88178e-16,-40,-0.04,,-1.118e-06,0
-1.4808e-06,2,-0.08,-40,-0.04,,-1.116e-06,0
-1.4804e-06,-2,-0.08,-40,-0.04,,-1.114e-06,0
-1.4800e-06,2,-0.08,-40,-0.04,,-1.112e-06,0
-1.4796e-06,2,-0.16,40,-0.04,,-1.110e-06,0
-1.4792e-06,-2,-0.08,-40,-0.04,,-1.108e-06,0
-1.4788e-06,-6,-0.08,40,-0.04,,-1.106e-06,0
-1.4784e-06,2,-0.16,-40,-0.08,,-1.104e-06,0
-1.4780e-06,-2,8.88178e-16,-120,-0.08,,-1.102e-06,0
-1.4776e-06,-2,8.88178e-16,-40,-0.08,,-1.100e-06,0
-1.4772e-06,-2,-0.08,120,-0.04,,-1.098e-06,0
-1.4768e-06,-2,-0.16,40,-0.04,,-1.096e-06,0
-1.4764e-06,2,-0.08,-120,-0.04,,-1.094e-06,0
-1.4760e-06,2,8.88178e-16,-40,-0.04,,-1.092e-06,0
-1.4756e-06,-2,-0.08,-40,-0.04,,-1.090e-06,0
-1.4752e-06,-2,-0.08,40,0,,-1.088e-06,0
-1.4748e-06,-6,0.08,-40,-0.04,,-1.086e-06,0
-1.4744e-06,-2,8.88178e-16,40,-0.08,,-1.084e-06,0
-1.4740e-06,-2,8.88178e-16,40,-0.04,,-1.082e-06,0
-1.4736e-06,-2,8.88178e-16,120,0,,-1.080e-06,0
-1.4732e-06,-2,8.88178e-16,-40,-0.04,,-1.078e-06,0
-1.4728e-06,2,8.88178e-16,-40,-0.08,,-1.076e-06,0
-1.4724e-06,-2,8.88178e-16,-40,-0.04,,-1.074e-06,0
-1.4720e-06,-2,8.88178e-16,40,-0.04,,-1.072e-06,0
-1.4716e-06,-2,8.88178e-16,-40,-0.08,,-1.070e-06,0
-1.4712e-06,-2,8.88178e-16,-40,-0.04,,-1.068e-06,0
-1.4708e-06,-2,-0.08,40,0,,-1.066e-06,0
-1.4704e-06,-2,8.88178e-16,-40,-0.04,,-1.064e-06,0
-1.4700e-06,-2,8.88178e-16,40,0.04,,-1.062e-06,0
-1.4696e-06,2,8.88178e-16,40,0,,-1.060e-06,0
-1.4692e-06,2,8.88178e-16,-40,-0.08,,-1.058e-06,0
-1.4688e-06,2,8.88178e-16,-120,-0.04,,-1.056e-06,0
-1.4684e-06,2,8.88178e-16,-40,-0.04,,-1.054e-06,0
-1.4680e-06,2,8.88178e-16,-120,-0.04,,-1.052e-06,0
-1.4676e-06,2,8.88178e-16,-40,-0.04,,-1.050e-06,0
-1.4672e-06,2,8.88178e-16,-40,-0.04,,-1.048e-06,0
-1.4668e-06,-2,0.08,-40,0,,-1.046e-06,0
-1.4664e-06,-2,8.88178e-16,40,-0.04,,-1.044e-06,0
-1.4660e-06,2,8.88178e-16,40,-0.04,,-1.042e-06,0
-1.4656e-06,6,8.88178e-16,40,-0.04,,-1.040e-06,0
-1.4652e-06,2,8.88178e-16,40,-0.04,,-1.038e-06,0
-1.4648e-06,2,-0.08,40,0,,-1.036e-06,0
-1.4644e-06,-2,-0.08,40,-0.04,,-1.034e-06,0
-1.4640e-06,-2,8.88178e-16,-40,-0.08,,-1.032e-06,0
-1.4636e-06,-2,8.88178e-16,-40,-0.04,,-1.030e-06,0
-1.4632e-06,2,8.88178e-16,-40,0,,-1.028e-06,0
-1.4628e-06,2,8.88178e-16,-40,0,,-1.026e-06,0
-1.4624e-06,2,-0.16,-40,0,,-1.024e-06,0
-1.4620e-06,2,0.08,-40,-0.08,,-1.022e-06,0
-1.4616e-06,2,8.88178e-16,40,-0.04,,-1.020e-06,0
-1.4612e-06,-6,8.88178e-16,-40,0,,-1.018e-06,0
-1.4608e-06,2,-0.08,-40,-0.04,,-1.016e-06,0
-1.4604e-06,2,8.88178e-16,-40,-0.04,,-1.014e-06,0
-1.4600e-06,2,-0.08,-40,-0.08,,-1.012e-06,0
-1.4596e-06,2,8.88178e-16,40,-0.04,,-1.010e-06,0
-1.4592e-06,-2,8.88178e-16,-40,-0.04,,-1.008e-06,0
-1.4588e-06,-2,8.88178e-16,-40,-0.04,,-1.006e-06,0
-1.4584e-06,-6,8.88178e-16,40,-0.04,,-1.004e-06,0
-1.4580e-06,-2,8.88178e-16,40,-0.04,,-1.002e-06,0
-1.4576e-06,-2,8.88178e-16,40,-0.08,,-1.000e-06,0
-1.4572e-06,-6,8.88178e-16,40,-0.04,,-9.980e-07,0
-1.4568e-06,-2,-0.08,40,-0.04,,-9.960e-07,0
-1.4564e-06,-2,8.88178e-16,40,-0.08,,-9.940e-07,0
-1.4560e-06,-2,0.08,-40,-0.04,,-9.920e-07,0
-1.4556e-06,-2,-0.08,-120,-0.04,,-9.900e-07,0
-1.4552e-06,2,8.88178e-16,40,-0.04,,-9.880e-07,0
-1.4548e-06,-2,8.88178e-16,40,-0.04,,-9.860e-07,0
-1.4544e-06,-2,8.88178e-16,40,-0.04,,-9.840e-07,0
-1.4540e-06,2,8.88178e-16,-40,-0.08,,-9.820e-07,0
-1.4536e-06,-2,8.88178e-16,-40,-0.04,,-9.800e-07,0
-1.4532e-06,-2,-0.08,40,0,,-9.780e-07,0
-1.4528e-06,-2,0.08,40,-0.04,,-9.760e-07,0
-1.4524e-06,-2,-0.08,-40,-0.04,,-9.740e-07,0
-1.4520e-06,2,8.88178e-16,40,-0.08,,-9.720e-07,0
-1.4516e-06,2,8.88178e-16,40,0,,-9.700e-07,0
-1.4512e-06,-2,8.88178e-16,-120,-0.04,,-9.680e-07,0
-1.4508e-06,-2,0.08,40,-0.04,,-9.660e-07,0
-1.4504e-06,-2,8.88178e-16,-40,-0.04,,-9.640e-07,0
-1.4500e-06,-2,8.88178e-16,40,0,,-9.620e-07,0
-1.4496e-06,2,8.88178e-16,40,-0.08,,-9.600e-07,0
-1.4492e-06,2,-0.08,40,-0.04,,-9.580e-07,0
-1.4488e-06,2,8.88178e-16,-40,-0.04,,-9.560e-07,0
-1.4484e-06,-2,8.88178e-16,-40,0,,-9.540e-07,0
-1.4480e-06,-2,8.88178e-16,40,-0.04,,-9.520e-07,0
-1.4476e-06,2,8.88178e-16,40,-0.04,,-9.500e-07,0
-1.4472e-06,2,8.88178e-16,-40,-0.04,,-9.480e-07,0
-1.4468e-06,-2,-0.08,40,-0.04,,-9.460e-07,0
-1.4464e-06,2,8.88178e-16,40,0,,-9.440e-07,0
-1.4460e-06,2,-0.16,40,0,,-9.420e-07,0
-1.4456e-06,2,0.08,40,-0.04,,-9.400e-07,0
-1.4452e-06,2,8.88178e-16,-40,-0.08,,-9.380e-07,0
-1.4448e-06,2,8.88178e-16,-40,-0.08,,-9.360e-07,0
-1.4444e-06,2,0.08,-40,0,,-9.340e-07,0
-1.4440e-06,2,8.88178e-16,-40,-0.04,,-9.320e-07,0
-1.4436e-06,2,8.88178e-16,-120,-0.04,,-9.300e-07,0
-1.4432e-06,-2,-0.08,-40,-0.04,,-9.280e-07,0
-1.4428e-06,2,0.08,-40,-0.04,,-9.260e-07,0
-1.4424e-06,2,8.88178e-16,-40,-0.08,,-9.240e-07,0
-1.4420e-06,2,8.88178e-16,-40,-0.04,,-9.220e-07,0
-1.4416e-06,2,-0.08,40,-0.04,,-9.200e-07,0
-1.4412e-06,2,8.88178e-16,-120,-0.08,,-9.180e-07,0
-1.4408e-06,2,8.88178e-16,-40,-0.04,,-9.160e-07,0
-1.4404e-06,2,8.88178e-16,-40,-0.08,,-9.140e-07,0
-1.4400e-06,-6,8.88178e-16,40,-0.04,,-9.120e-07,0
-1.4396e-06,-6,8.88178e-16,40,-0.08,,-9.100e-07,0
-1.4392e-06,-6,0.08,40,-0.04,,-9.080e-07,0
-1.4388e-06,-6,-0.08,40,-0.04,,-9.060e-07,0
-1.4384e-06,-2,-0.08,-40,-0.04,,-9.040e-07,0
-1.4380e-06,-6,8.88178e-16,40,0,,-9.020e-07,0
-1.4376e-06,-6,8.88178e-16,-40,-0.04,,-9.000e-07,0
-1.4372e-06,-6,8.88178e-16,-40,-0.12,,-8.980e-07,0
-1.4368e-06,-10,8.88178e-16,-40,-0.08,,-8.960e-07,0
-1.4364e-06,-6,-0.08,40,-0.04,,-8.940e-07,0
-1.4360e-06,-6,8.88178e-16,40,-0.04,,-8.920e-07,0
-1.4356e-06,-6,-0.08,-40,-0.04,,-8.900e-07,0
-1.4352e-06,-6,-0.16,-120,-0.04,,-8.880e-07,0
-1.4348e-06,-2,-0.16,-40,-0.04,,-8.860e-07,0
-1.4344e-06,2,8.88178e-16,-40,-0.04,,-8.840e-07,0
-1.4340e-06,-2,0.08,-40,0,,-8.820e-07,0
-1.4336e-06,-6,8.88178e-16,-40,-0.04,,-8.800e-07,0
-1.4332e-06,-2,8.88178e-16,-40,-0.08,,-8.780e-07,0
-1.4328e-06,-2,8.88178e-16,40,-0.08,,-8.760e-07,0
-1.4324e-06,-2,0.08,-40,-0.04,,-8.740e-07,0
-1.4320e-06,2,-0.08,40,-0.04,,-8.720e-07,0
-1.4316e-06,-2,8.88178e-16,40,-0.04,,-8.700e-07,0
-1.4312e-06,-2,8.88178e-16,40,-0.08,,-8.680e-07,0
-1.4308e-06,-2,8.88178e-16,40,-0.08,,-8.660e-07,0
-1.4304e-06,-2,8.88178e-16,40,-0.04,,-8.640e-07,0
-1.4300e-06,-2,8.88178e-16,120,-0.08,,-8.620e-07,0
-1.4296e-06,2,-0.08,40,-0.08,,-8.600e-07,0
-1.4292e-06,2,8.88178e-16,40,-0.08,,-8.580e-07,0
-1.4288e-06,2,8.88178e-16,40,-0.08,,-8.560e-07,0
-1.4284e-06,2,0.08,-40,-0.08,,-8.540e-07,0
-1.4280e-06,2,8.88178e-16,-40,-0.04,,-8.520e-07,0
-1.4276e-06,-2,0.08,-40,-0.04,,-8.500e-07,0
-1.4272e-06,2,8.88178e-16,-40,-0.04,,-8.480e-07,0
-1.4268e-06,2,8.88178e-16,-40,-0.08,,-8.460e-07,0
-1.4264e-06,2,8.88178e-16,40,-0.04,,-8.440e-07,0
-1.4260e-06,2,8.88178e-16,40,-0.08,,-8.420e-07,0
-1.4256e-06,2,8.88178e-16,-40,-0.04,,-8.400e-07,0
-1.4252e-06,2,8.88178e-16,40,-0.08,,-8.380e-07,0
-1.4248e-06,2,0.08,40,-0.08,,-8.360e-07,0
-1.4244e-06,2,0.08,40,-0.08,,-8.340e-07,0
-1.4240e-06,2,0.08,-40,-0.04,,-8.320e-07,0
-1.4236e-06,2,8.88178e-16,40,-0.04,,-8.300e-07,0
-1.4232e-06,2,0.08,40,-0.04,,-8.280e-07,0
-1.4228e-06,2,0.08,40,-0.08,,-8.260e-07,0
-1.4224e-06,2,8.88178e-16,40,-0.08,,-8.240e-07,0
-1.4220e-06,2,8.88178e-16,40,0,,-8.220e-07,0
-1.4216e-06,2,8.88178e-16,-40,-0.08,,-8.200e-07,0
-1.4212e-06,2,8.88178e-16,-40,-0.04,,-8.180e-07,0
-1.4208e-06,2,-0.16,40,0,,-8.160e-07,0
-1.4204e-06,2,8.88178e-16,40,-0.08,,-8.140e-07,0
-1.4200e-06,-2,8.88178e-16,40,-0.04,,-8.120e-07,0
-1.4196e-06,-2,8.88178e-16,-120,0,,-8.100e-07,0
-1.4192e-06,-6,8.88178e-16,40,-0.04,,-8.080e-07,0
-1.4188e-06,2,-0.08,40,0,,-8.060e-07,0
-1.4184e-06,-2,8.88178e-16,40,-0.04,,-8.040e-07,0
-1.4180e-06,-2,8.88178e-16,-40,-0.04,,-8.020e-07,0
-1.4176e-06,-2,8.88178e-16,-40,-0.04,,-8.000e-07,0
-1.4172e-06,-2,8.88178e-16,40,-0.04,,-7.980e-07,0
-1.4168e-06,-2,8.88178e-16,-40,-0.04,,-7.960e-07,0
-1.4164e-06,-2,8.88178e-16,40,0,,-7.940e-07,0
-1.4160e-06,-6,-0.08,40,0,,-7.920e-07,0
-1.4156e-06,-2,0.08,40,0,,-7.900e-07,0
-1.4152e-06,-2,8.88178e-16,40,0,,-7.880e-07,0
-1.4148e-06,-2,8.88178e-16,-40,-0.04,,-7.860e-07,0
-1.4144e-06,-2,-0.32,-40,0,,-7.840e-07,0
-1.4140e-06,-6,-0.4,40,-0.04,,-7.820e-07,0
-1.4136e-06,-2,-0.32,-40,-0.04,,-7.800e-07,0
-1.4132e-06,2,-0.08,40,-0.04,,-7.780e-07,0
-1.4128e-06,-2,8.88178e-16,40,-0.04,,-7.760e-07,0
-1.4124e-06,-2,8.88178e-16,40,-0.04,,-7.740e-07,0
-1.4120e-06,-6,-0.08,40,-0.04,,-7.720e-07,0
-1.4116e-06,-2,-0.16,40,-0.08,,-7.700e-07,0
-1.4112e-06,-6,0.08,40,-0.08,,-7.680e-07,0
-1.4108e-06,-6,0.32,-40,-0.04,,-7.660e-07,0
-1.4104e-06,-18,0.16,-40,-0.04,,-7.640e-07,0
-1.4100e-06,-22,-0.08,40,-0.04,,-7.620e-07,0
-1.4096e-06,-42,-0.4,-40,-0.04,,-7.600e-07,0
-1.4092e-06,-78,-0.16,-120,-0.08,,-7.580e-07,0
-1.4088e-06,-114,-0.08,-120,0,,-7.560e-07,0
-1.4084e-06,-138,0.24,-40,-0.04,,-7.540e-07,0
-1.4080e-06,-126,0.24,40,-0.08,,-7.520e-07,0
-1.4076e-06,-62,8.88178e-16,40,-0.04,,-7.500e-07,0
-1.4072e-06,2,-0.32,120,0,,-7.480e-07,0
